{
    "name": "common",
    "$schema": "../../node_modules/nx/schemas/project-schema.json",
    "projectType": "library",
    "sourceRoot": "libs/common/src",
    "prefix": "ttc",
    "targets": {
        "test": {
            "executor": "@nx/jest:jest",
            "outputs": ["coverage/libs/common"],
            "options": {
                "jestConfig": "libs/common/jest.config.ts",
                "passWithNoTests": true
            }
        },
        "lint": {
            "executor": "@nx/linter:eslint",
            "options": {
                "lintFilePatterns": ["libs/common/**/*.ts", "libs/common/**/*.html"]
            }
        }
    },
    "tags": []
}
